{
	"Actor":
	{
		"types":
		[
			"character",
			"npc",
			"creature"
		],
		"templates":
		{
			"identity":
			{
				"identity":
				{
					"class": "",
					"rank": "",
					"faction": "",
					"title": "",
					"region": ""
				}
			},
			"characteristics":
			{
				"characteristics":
				{
					"physique": 0,
					"constitution": 0,
					"agility": 0,
					"intelligence": 0,
					"willpower": 0,
					"charisma": 0
				}
			},
			"derived_characteristics":
			{
				"derived_characteristics":
				{
					"health_points":
					{
						"value": 0,
						"max": 0
					},
					"luck":
					{
						"value": 0,
						"max": 0
					},
					"stress":
					{
						"value": 0,
						"max": 0
					},
					"contamination":
					{
						"value": 0,
						"max": 0
					},
					"encumbrance":
					{
						"value": 0,
						"max": 0
					},
					"strike_force": 0,
					"physical_resistance": 0,
					"esoteric_resistance": 0,
					"speed": 0,
					"stamina": 0,
					"initiative": 0
				}
			},
			"progression":
			{
				"progression":
				{
					"experience":
					{
						"value": 0,
						"max": 0
					},
					"influence":
					{
						"value": 0,
						"max": 0
					}
				}
			},
			"proficiencies":
			{
				"proficiencies":
				[
					{
						"level": 1
					}
				]
			},
			"money":
			{
				"money": 0
			},
			"biography":
			{
				"biography": ""
			}
		},
		"character":
		{
			"templates":
			[
				"identity",
				"progression",
				"characteristics",
				"derived_characteristics",
				"proficiencies"
			]
		},
		"npc":
		{
			"templates":
			[
				"identity",
				"derived_characteristics"
			]
		},
		"creature":
		{
			"templates":
			[
				"identity",
				"derived_characteristics"
			]
		}
	},
	"Item":
	{
		"types":
		[
			"skill",
			"passive_ability",
			"active_ability",
			"item",
			"weapon",
			"armour",
			"rank"
		],
		"templates":
		{
			"basics":
			{
				"description": ""
			},
			"item":
			{
				"encumbrance": 0,
				"equipped": false,
				"quantity": 1,
				"price": 0,
				"properties":
				[
				],
				"rarity": ""
			}
		},
		"skill":
		{
			"templates":
			[
				"basics"
			],
			"associated_characteristic": "",
			"raw_value": 0,
			"true_value": 0
		},
		"passive_ability":
		{
			"templates":
			[
				"basics"
			]
		},
		"active_ability":
		{
			"templates":
			[
				"basics"
			],
			"skill": ""
		},
		"item":
		{
			"templates":
			[
				"basics",
				"item"
			]
		},
		"armour":
		{
			"templates":
			[
				"basics",
				"item"
			],
			"armour_points":
			{
				"head": 0,
				"right_arm": 0,
				"left_arm": 0,
				"body": 0,
				"right_leg": 0,
				"left_leg": 0
			},
			"location": "",
			"rune": ""
		},
		"weapon":
		{
			"templates":
			[
				"basics",
				"item"
			],
			"damages": 1,
			"capacity": "",
			"group": "",
			"range": ""
		},
		"rank":
		{
			"templates":
			[
				"basics"
			]
		}
	}
}
